<?xml version="1.0" encoding="utf-8"?>
<!-- Generator: Adobe Illustrator 22.1.0, SVG Export Plug-In . SVG Version: 6.00 Build 0)  -->
<svg version="1.1" id="sphere" xmlns="http://www.w3.org/2000/svg" xmlns:xlink="http://www.w3.org/1999/xlink" x="0px" y="0px"
	 viewBox="0 0 122.5 122.5" style="enable-background:new 0 0 122.5 122.5;" xml:space="preserve">
<style type="text/css">
	.st0{fill:#FF920A;}
	.st1{fill:#00375F;}
</style>
<g>
	<g>
		<path class="st0" d="M100.3,81.2c-2.1,4.1-4.8,7.9-8.1,11.1c-4,4-8.7,7.2-13.9,9.4V72.1l-4.8,5.5l0,0v25.9
			c-3.9,1.1-8.1,1.8-12.4,1.8c-3.3,0-6.5-0.4-9.6-1.1V84.5l-4.7,5.4l-0.1-0.1v12.9c-6.3-2.2-12-5.8-16.7-10.4
			c-0.9-0.9-1.8-1.9-2.6-2.9l9-10.4l10.4,7.9l17.4-19.8l9.3,7.5l0,0L100.3,44V81.2z"/>
		<polygon class="st0" points="78.3,7.3 78.3,58.5 100.3,33.4 100.3,7.3 		"/>
		<polygon class="st0" points="46.7,76.4 46.7,57.5 24.7,57.5 24.7,81.8 35.4,69.4 45.8,77.4 		"/>
		<polygon class="st0" points="51.5,35.4 51.5,70.9 63.3,57.4 72.6,64.9 73.5,63.9 73.5,35.4 		"/>
	</g>
	<path class="st1" d="M121.5,72.3c0.7-3.6,1-7.3,1-11.1c0-2.4-0.1-4.8-0.4-7.1l-5.4-0.2c-0.5-3.5-1.3-7-2.3-10.3l4.9-2.3
		c-2-5.8-4.8-11.2-8.4-16.1l-6.4,3.1v12.5c2.9,6.2,4.5,13,4.5,20.3c0,13.2-5.4,25.2-14,33.9c-8.7,8.7-20.6,14-33.9,14
		c-13.2,0-25.2-5.4-33.9-14c-8.7-8.7-14-20.6-14-33.9c0-13.2,5.4-25.2,14-33.9c8.7-8.7,20.6-14,33.9-14c4.3,0,8.5,0.6,12.4,1.6V6.6
		c-1.2-0.3-2.4-0.5-3.7-0.7V0.6C67,0.2,64.2,0,61.3,0c-3.3,0-6.4,0.3-9.6,0.7v5.4c-4,0.7-7.8,1.8-11.4,3.2l-3-4.5
		c-5.6,2.4-10.8,5.6-15.5,9.5l2.9,4.4c-2.9,2.4-5.5,5.2-7.8,8.1l-4.7-2.4c-3.6,4.8-6.5,10.2-8.6,15.9l4.6,2.4
		C7,46.4,6.1,50.2,5.6,54.1l-5.2,0C0.1,56.5,0,58.9,0,61.3c0,3.8,0.3,7.4,1,11l5.2,0c0.8,4.1,2.1,8,3.7,11.7l-4.3,2.9
		c2.6,5.6,5.9,10.7,9.9,15.2l4.3-2.9c0-0.1-0.1-0.1,0,0c2.4,2.7,4.6,4.7,7.5,6.8c0,0,0,0,0,0l-2.5,4.5c4.8,3.6,10.2,6.5,16,8.5
		l2.5-4.6c3.1,1,6.2,1.8,9.5,2.3c0,0,0,0,0,0v5.2c2.7,0.4,5.5,0.6,8.4,0.6c3.3,0,6.6-0.3,9.8-0.8v-5.3c0,0,0,0,0,0
		c3.9-0.7,7.6-1.8,11.1-3.2l3,4.5c5.6-2.4,10.8-5.6,15.5-9.5l-2.9-4.5c2.6-2.3,4.9-4.5,7.1-7.3l4.5,2.9c3.8-4.7,6.8-10,9.1-15.7
		l-4.6-2.9c0,0,0,0,0,0c1-2.8,1.9-5.7,2.5-8.7c0,0,0,0,0,0L121.5,72.3z"/>
</g>
</svg>
